2026 Ulva australis Dessiccation analysis
…
Figure 2: The response of the effective quantum yield (ΔF/Fm′) in the green alga, Ulva australis from Nagashima Island, Kagoshima, Japan along the relative water content (%RWC) to (A) only air exposure, (B) air exposure and subsequent 30-minute rehydration, and (C) air exposure and subsequent 1-day rehydration conducted at 20°C and 50% humidity under the dim light (20 μmol photons m-2 s-1). The points are jittered horizontally for clarity (n = 50).

Smithson, M., & Verkuilen, J. (2006). A better lemon squeezer? Maximum-likelihood regression with beta-distributed dependent variables. Psychological Methods, 11(1), 54–71. https://doi.org/10.1037/1082-989X.11.1.54

# A tibble: 120 × 8
   state       nstate minutes   rwc   awc  sawc value_m value_sd
   <fct>       <fct>    <dbl> <dbl> <dbl> <dbl>   <dbl>    <dbl>
 1 Desiccation D            0 100   1     0.999  0.679   0.00624
 2 Desiccation D           10  71.6 0.874 0.716  0.688   0.0170 
 3 Desiccation D           20  39.1 0.646 0.391  0.535   0.170  
 4 Desiccation D           30  34.6 0.600 0.346  0.375   0.181  
 5 Desiccation D           45  19.8 0.390 0.199  0.126   0.0839 
 6 Desiccation D           60  10.7 0.158 0.108  0.0562  0.0276 
 7 Desiccation D          120  10.8 0.161 0.109  0.0523  0.00797
 8 Desiccation D          180  10.2 0.141 0.103  0.0095  0.0123 
 9 Desiccation D            0 100   1     0.999  0.661   0.0150 
10 Desiccation D           10  74.6 0.890 0.746  0.665   0.0133 
# ℹ 110 more rows
…
